<?xml version="1.0" encoding="UTF-8"?>
<svg xmlns="http://www.w3.org/2000/svg" xmlns:xlink="http://www.w3.org/1999/xlink" width="659pt" height="415pt" viewBox="0 0 659 415" version="1.1">
<defs>
<g>
<symbol overflow="visible" id="glyph0-0">
<path style="stroke:none;" d="M 0.570313 -3.867188 L 0.570313 -5.457031 L 5.429688 -5.457031 L 5.429688 -3.867188 Z M 0.570313 -3.867188 "/>
</symbol>
<symbol overflow="visible" id="glyph0-1">
<path style="stroke:none;" d="M 4.667969 0 L 4.667969 -11.363281 L 0.421875 -11.363281 L 0.421875 -12.882813 L 10.632813 -12.882813 L 10.632813 -11.363281 L 6.371094 -11.363281 L 6.371094 0 Z M 4.667969 0 "/>
</symbol>
<symbol overflow="visible" id="glyph0-2">
<path style="stroke:none;" d="M 1.320313 0 L 1.320313 -12.882813 L 3.023438 -12.882813 L 3.023438 -1.519531 L 9.367188 -1.519531 L 9.367188 0 Z M 1.320313 0 "/>
</symbol>
<symbol overflow="visible" id="glyph0-3">
<path style="stroke:none;" d="M 1.390625 0 L 1.390625 -12.882813 L 6.25 -12.882813 C 7.101563 -12.878906 7.753906 -12.839844 8.210938 -12.761719 C 8.835938 -12.652344 9.367188 -12.449219 9.796875 -12.15625 C 10.226563 -11.859375 10.570313 -11.445313 10.832031 -10.914063 C 11.089844 -10.378906 11.21875 -9.792969 11.222656 -9.15625 C 11.21875 -8.058594 10.871094 -7.132813 10.175781 -6.375 C 9.476563 -5.617188 8.21875 -5.238281 6.398438 -5.238281 L 3.09375 -5.238281 L 3.09375 0 Z M 3.09375 -6.757813 L 6.425781 -6.757813 C 7.523438 -6.753906 8.304688 -6.960938 8.769531 -7.371094 C 9.230469 -7.78125 9.460938 -8.359375 9.464844 -9.105469 C 9.460938 -9.644531 9.324219 -10.105469 9.054688 -10.488281 C 8.78125 -10.871094 8.425781 -11.125 7.980469 -11.25 C 7.691406 -11.324219 7.160156 -11.359375 6.390625 -11.363281 L 3.09375 -11.363281 Z M 3.09375 -6.757813 "/>
</symbol>
<symbol overflow="visible" id="glyph0-4">
<path style="stroke:none;" d="M 0.808594 -4.140625 L 2.417969 -4.28125 C 2.492188 -3.632813 2.667969 -3.101563 2.949219 -2.691406 C 3.222656 -2.277344 3.65625 -1.945313 4.246094 -1.691406 C 4.828125 -1.433594 5.488281 -1.304688 6.222656 -1.308594 C 6.871094 -1.304688 7.445313 -1.402344 7.945313 -1.597656 C 8.441406 -1.789063 8.808594 -2.054688 9.054688 -2.394531 C 9.296875 -2.726563 9.421875 -3.09375 9.421875 -3.5 C 9.421875 -3.898438 9.304688 -4.25 9.070313 -4.554688 C 8.835938 -4.851563 8.449219 -5.105469 7.910156 -5.316406 C 7.5625 -5.449219 6.796875 -5.660156 5.613281 -5.945313 C 4.429688 -6.226563 3.601563 -6.496094 3.128906 -6.75 C 2.511719 -7.070313 2.050781 -7.46875 1.753906 -7.949219 C 1.449219 -8.421875 1.300781 -8.957031 1.300781 -9.554688 C 1.300781 -10.203125 1.484375 -10.8125 1.851563 -11.378906 C 2.21875 -11.941406 2.757813 -12.367188 3.46875 -12.664063 C 4.179688 -12.953125 4.96875 -13.101563 5.835938 -13.105469 C 6.789063 -13.101563 7.628906 -12.945313 8.363281 -12.640625 C 9.089844 -12.328125 9.652344 -11.878906 10.042969 -11.285156 C 10.433594 -10.6875 10.644531 -10.007813 10.679688 -9.253906 L 9.042969 -9.132813 C 8.953125 -9.941406 8.65625 -10.554688 8.152344 -10.976563 C 7.640625 -11.390625 6.894531 -11.601563 5.90625 -11.601563 C 4.875 -11.601563 4.121094 -11.410156 3.652344 -11.035156 C 3.175781 -10.652344 2.941406 -10.199219 2.945313 -9.667969 C 2.941406 -9.203125 3.109375 -8.820313 3.445313 -8.523438 C 3.773438 -8.222656 4.628906 -7.917969 6.015625 -7.605469 C 7.398438 -7.292969 8.347656 -7.019531 8.867188 -6.785156 C 9.613281 -6.4375 10.167969 -5.996094 10.527344 -5.46875 C 10.882813 -4.9375 11.0625 -4.328125 11.066406 -3.640625 C 11.0625 -2.949219 10.867188 -2.304688 10.476563 -1.699219 C 10.082031 -1.089844 9.515625 -0.617188 8.78125 -0.285156 C 8.042969 0.0507813 7.214844 0.214844 6.300781 0.21875 C 5.132813 0.214844 4.15625 0.0507813 3.371094 -0.289063 C 2.578125 -0.625 1.960938 -1.136719 1.515625 -1.824219 C 1.066406 -2.503906 0.832031 -3.277344 0.808594 -4.140625 Z M 0.808594 -4.140625 "/>
</symbol>
<symbol overflow="visible" id="glyph0-5">
<path style="stroke:none;" d="M 5.070313 0 L 0.078125 -12.882813 L 1.925781 -12.882813 L 5.273438 -3.523438 C 5.542969 -2.769531 5.765625 -2.066406 5.949219 -1.414063 C 6.144531 -2.113281 6.378906 -2.816406 6.644531 -3.523438 L 10.125 -12.882813 L 11.867188 -12.882813 L 6.820313 0 Z M 5.070313 0 "/>
</symbol>
<symbol overflow="visible" id="glyph1-0">
<path style="stroke:none;" d="M -0.03125 0 L 5.90625 -15.460938 L 8.109375 -15.460938 L 14.4375 0 L 12.109375 0 L 10.304688 -4.683594 L 3.839844 -4.683594 L 2.140625 0 Z M 4.429688 -6.347656 L 9.671875 -6.347656 L 8.058594 -10.632813 C 7.5625 -11.929688 7.199219 -12.996094 6.960938 -13.835938 C 6.761719 -12.84375 6.484375 -11.859375 6.128906 -10.882813 Z M 4.429688 -6.347656 "/>
</symbol>
<symbol overflow="visible" id="glyph1-1">
<path style="stroke:none;" d="M 1.421875 0 L 1.421875 -11.199219 L 3.121094 -11.199219 L 3.121094 -9.628906 C 3.46875 -10.175781 3.9375 -10.617188 4.523438 -10.953125 C 5.105469 -11.28125 5.769531 -11.449219 6.519531 -11.453125 C 7.34375 -11.449219 8.023438 -11.277344 8.558594 -10.9375 C 9.085938 -10.589844 9.460938 -10.109375 9.683594 -9.492188 C 10.566406 -10.796875 11.71875 -11.449219 13.140625 -11.453125 C 14.25 -11.449219 15.105469 -11.140625 15.703125 -10.53125 C 16.300781 -9.914063 16.597656 -8.96875 16.601563 -7.6875 L 16.601563 0 L 14.710938 0 L 14.710938 -7.054688 C 14.707031 -7.8125 14.644531 -8.359375 14.527344 -8.695313 C 14.402344 -9.027344 14.179688 -9.292969 13.859375 -9.5 C 13.53125 -9.703125 13.152344 -9.808594 12.71875 -9.808594 C 11.929688 -9.808594 11.277344 -9.546875 10.757813 -9.023438 C 10.234375 -8.5 9.972656 -7.660156 9.976563 -6.507813 L 9.976563 0 L 8.078125 0 L 8.078125 -7.277344 C 8.074219 -8.121094 7.917969 -8.753906 7.613281 -9.175781 C 7.300781 -9.597656 6.796875 -9.808594 6.097656 -9.808594 C 5.558594 -9.808594 5.0625 -9.667969 4.613281 -9.386719 C 4.15625 -9.105469 3.828125 -8.691406 3.625 -8.152344 C 3.417969 -7.605469 3.316406 -6.828125 3.320313 -5.8125 L 3.320313 0 Z M 1.421875 0 "/>
</symbol>
<symbol overflow="visible" id="glyph1-2">
<path style="stroke:none;" d="M 1.433594 -13.277344 L 1.433594 -15.460938 L 3.332031 -15.460938 L 3.332031 -13.277344 Z M 1.433594 0 L 1.433594 -11.199219 L 3.332031 -11.199219 L 3.332031 0 Z M 1.433594 0 "/>
</symbol>
<symbol overflow="visible" id="glyph1-3">
<path style="stroke:none;" d="M 1.421875 0 L 1.421875 -11.199219 L 3.132813 -11.199219 L 3.132813 -9.609375 C 3.953125 -10.835938 5.140625 -11.449219 6.695313 -11.453125 C 7.371094 -11.449219 7.992188 -11.328125 8.558594 -11.089844 C 9.121094 -10.84375 9.542969 -10.527344 9.828125 -10.136719 C 10.105469 -9.742188 10.304688 -9.273438 10.421875 -8.734375 C 10.488281 -8.378906 10.523438 -7.761719 10.527344 -6.886719 L 10.527344 0 L 8.628906 0 L 8.628906 -6.8125 C 8.625 -7.582031 8.550781 -8.160156 8.40625 -8.546875 C 8.253906 -8.929688 7.992188 -9.234375 7.617188 -9.464844 C 7.242188 -9.691406 6.800781 -9.808594 6.296875 -9.808594 C 5.484375 -9.808594 4.785156 -9.550781 4.199219 -9.039063 C 3.609375 -8.523438 3.316406 -7.550781 3.320313 -6.117188 L 3.320313 0 Z M 1.421875 0 "/>
</symbol>
<symbol overflow="visible" id="glyph1-4">
<path style="stroke:none;" d="M 0.71875 -5.601563 C 0.714844 -7.671875 1.289063 -9.207031 2.445313 -10.210938 C 3.40625 -11.035156 4.582031 -11.449219 5.96875 -11.453125 C 7.507813 -11.449219 8.765625 -10.945313 9.746094 -9.9375 C 10.71875 -8.929688 11.207031 -7.535156 11.210938 -5.757813 C 11.207031 -4.316406 10.992188 -3.183594 10.5625 -2.355469 C 10.128906 -1.527344 9.5 -0.882813 8.675781 -0.429688 C 7.847656 0.0273438 6.945313 0.25 5.96875 0.253906 C 4.398438 0.25 3.132813 -0.25 2.167969 -1.253906 C 1.199219 -2.257813 0.714844 -3.707031 0.71875 -5.601563 Z M 2.667969 -5.601563 C 2.664063 -4.164063 2.976563 -3.089844 3.605469 -2.378906 C 4.230469 -1.664063 5.019531 -1.304688 5.96875 -1.308594 C 6.910156 -1.304688 7.695313 -1.664063 8.320313 -2.382813 C 8.945313 -3.097656 9.257813 -4.191406 9.261719 -5.664063 C 9.257813 -7.046875 8.941406 -8.097656 8.316406 -8.8125 C 7.683594 -9.523438 6.902344 -9.878906 5.96875 -9.882813 C 5.019531 -9.878906 4.230469 -9.523438 3.605469 -8.816406 C 2.976563 -8.101563 2.664063 -7.03125 2.667969 -5.601563 Z M 2.667969 -5.601563 "/>
</symbol>
<symbol overflow="visible" id="glyph1-5">
<path style="stroke:none;" d="M 8.734375 -1.382813 C 8.027344 -0.78125 7.351563 -0.355469 6.703125 -0.113281 C 6.050781 0.132813 5.351563 0.25 4.609375 0.253906 C 3.375 0.25 2.429688 -0.046875 1.769531 -0.648438 C 1.109375 -1.246094 0.777344 -2.015625 0.78125 -2.953125 C 0.777344 -3.5 0.902344 -4 1.15625 -4.457031 C 1.402344 -4.90625 1.730469 -5.269531 2.136719 -5.546875 C 2.539063 -5.820313 2.992188 -6.027344 3.5 -6.171875 C 3.871094 -6.265625 4.433594 -6.359375 5.1875 -6.453125 C 6.71875 -6.632813 7.847656 -6.851563 8.574219 -7.109375 C 8.578125 -7.367188 8.582031 -7.535156 8.585938 -7.605469 C 8.582031 -8.378906 8.402344 -8.921875 8.046875 -9.238281 C 7.558594 -9.664063 6.839844 -9.878906 5.886719 -9.882813 C 4.992188 -9.878906 4.332031 -9.722656 3.90625 -9.414063 C 3.480469 -9.097656 3.167969 -8.542969 2.964844 -7.75 L 1.109375 -8.003906 C 1.273438 -8.796875 1.550781 -9.4375 1.9375 -9.929688 C 2.324219 -10.417969 2.882813 -10.792969 3.617188 -11.058594 C 4.34375 -11.316406 5.191406 -11.449219 6.160156 -11.453125 C 7.113281 -11.449219 7.890625 -11.335938 8.488281 -11.113281 C 9.085938 -10.886719 9.527344 -10.605469 9.808594 -10.265625 C 10.089844 -9.925781 10.285156 -9.496094 10.398438 -8.976563 C 10.457031 -8.652344 10.488281 -8.066406 10.492188 -7.226563 L 10.492188 -4.695313 C 10.488281 -2.925781 10.527344 -1.808594 10.613281 -1.34375 C 10.691406 -0.875 10.851563 -0.429688 11.09375 0 L 9.113281 0 C 8.910156 -0.390625 8.785156 -0.851563 8.734375 -1.382813 Z M 8.574219 -5.621094 C 7.878906 -5.335938 6.847656 -5.097656 5.472656 -4.90625 C 4.691406 -4.789063 4.136719 -4.664063 3.816406 -4.523438 C 3.488281 -4.382813 3.238281 -4.175781 3.066406 -3.90625 C 2.886719 -3.632813 2.800781 -3.332031 2.804688 -3.007813 C 2.800781 -2.496094 2.992188 -2.074219 3.378906 -1.738281 C 3.757813 -1.398438 4.320313 -1.230469 5.0625 -1.234375 C 5.792969 -1.230469 6.441406 -1.390625 7.011719 -1.714844 C 7.578125 -2.03125 7.996094 -2.46875 8.269531 -3.027344 C 8.46875 -3.453125 8.570313 -4.085938 8.574219 -4.925781 Z M 8.574219 -5.621094 "/>
</symbol>
<symbol overflow="visible" id="glyph1-6">
<path style="stroke:none;" d="M 8.734375 -4.101563 L 10.601563 -3.859375 C 10.390625 -2.570313 9.867188 -1.5625 9.03125 -0.835938 C 8.1875 -0.109375 7.15625 0.25 5.9375 0.253906 C 4.402344 0.25 3.171875 -0.246094 2.242188 -1.25 C 1.308594 -2.25 0.84375 -3.6875 0.84375 -5.558594 C 0.84375 -6.765625 1.042969 -7.824219 1.445313 -8.730469 C 1.84375 -9.636719 2.453125 -10.316406 3.273438 -10.773438 C 4.089844 -11.222656 4.980469 -11.449219 5.949219 -11.453125 C 7.160156 -11.449219 8.15625 -11.140625 8.933594 -10.53125 C 9.703125 -9.914063 10.199219 -9.042969 10.421875 -7.910156 L 8.574219 -7.625 C 8.394531 -8.375 8.085938 -8.941406 7.640625 -9.324219 C 7.195313 -9.699219 6.65625 -9.890625 6.023438 -9.894531 C 5.0625 -9.890625 4.285156 -9.546875 3.691406 -8.863281 C 3.09375 -8.175781 2.792969 -7.089844 2.796875 -5.609375 C 2.792969 -4.101563 3.082031 -3.011719 3.660156 -2.332031 C 4.234375 -1.648438 4.988281 -1.304688 5.917969 -1.308594 C 6.660156 -1.304688 7.28125 -1.535156 7.78125 -1.992188 C 8.28125 -2.449219 8.597656 -3.152344 8.734375 -4.101563 Z M 8.734375 -4.101563 "/>
</symbol>
<symbol overflow="visible" id="glyph1-7">
<path style="stroke:none;" d="M 8.691406 0 L 8.691406 -1.414063 C 7.976563 -0.300781 6.933594 0.25 5.558594 0.253906 C 4.664063 0.25 3.84375 0.0078125 3.09375 -0.484375 C 2.34375 -0.972656 1.761719 -1.660156 1.355469 -2.546875 C 0.941406 -3.425781 0.738281 -4.441406 0.738281 -5.589844 C 0.738281 -6.707031 0.921875 -7.71875 1.296875 -8.632813 C 1.664063 -9.539063 2.222656 -10.238281 2.972656 -10.726563 C 3.714844 -11.207031 4.550781 -11.449219 5.472656 -11.453125 C 6.144531 -11.449219 6.746094 -11.308594 7.277344 -11.027344 C 7.804688 -10.742188 8.230469 -10.371094 8.5625 -9.914063 L 8.5625 -15.460938 L 10.453125 -15.460938 L 10.453125 0 Z M 2.6875 -5.589844 C 2.683594 -4.152344 2.984375 -3.078125 3.59375 -2.371094 C 4.195313 -1.660156 4.910156 -1.304688 5.738281 -1.308594 C 6.5625 -1.304688 7.269531 -1.644531 7.851563 -2.324219 C 8.429688 -3 8.71875 -4.035156 8.722656 -5.429688 C 8.71875 -6.960938 8.421875 -8.085938 7.835938 -8.804688 C 7.242188 -9.519531 6.515625 -9.878906 5.652344 -9.882813 C 4.804688 -9.878906 4.097656 -9.535156 3.535156 -8.847656 C 2.964844 -8.160156 2.683594 -7.074219 2.6875 -5.589844 Z M 2.6875 -5.589844 "/>
</symbol>
<symbol overflow="visible" id="glyph1-8">
<path style="stroke:none;" d="M 4.535156 0 L 0.273438 -11.199219 L 2.277344 -11.199219 L 4.683594 -4.492188 C 4.941406 -3.765625 5.179688 -3.011719 5.398438 -2.234375 C 5.5625 -2.820313 5.800781 -3.53125 6.105469 -4.367188 L 8.59375 -11.199219 L 10.546875 -11.199219 L 6.308594 0 Z M 4.535156 0 "/>
</symbol>
<symbol overflow="visible" id="glyph1-9">
<path style="stroke:none;" d="M 1.402344 0 L 1.402344 -11.199219 L 3.109375 -11.199219 L 3.109375 -9.503906 C 3.542969 -10.296875 3.945313 -10.820313 4.316406 -11.074219 C 4.683594 -11.324219 5.089844 -11.449219 5.539063 -11.453125 C 6.171875 -11.449219 6.824219 -11.246094 7.488281 -10.84375 L 6.835938 -9.082031 C 6.367188 -9.355469 5.902344 -9.492188 5.441406 -9.492188 C 5.023438 -9.492188 4.652344 -9.367188 4.324219 -9.117188 C 3.992188 -8.867188 3.753906 -8.519531 3.617188 -8.078125 C 3.402344 -7.402344 3.296875 -6.664063 3.300781 -5.863281 L 3.300781 0 Z M 1.402344 0 "/>
</symbol>
<symbol overflow="visible" id="glyph1-10">
<path style="stroke:none;" d="M 5.570313 -1.699219 L 5.84375 -0.0195313 C 5.304688 0.09375 4.828125 0.144531 4.410156 0.148438 C 3.71875 0.144531 3.183594 0.0390625 2.804688 -0.179688 C 2.421875 -0.394531 2.15625 -0.679688 2.003906 -1.039063 C 1.847656 -1.390625 1.769531 -2.140625 1.773438 -3.28125 L 1.773438 -9.722656 L 0.378906 -9.722656 L 0.378906 -11.199219 L 1.773438 -11.199219 L 1.773438 -13.976563 L 3.660156 -15.113281 L 3.660156 -11.199219 L 5.570313 -11.199219 L 5.570313 -9.722656 L 3.660156 -9.722656 L 3.660156 -3.175781 C 3.65625 -2.632813 3.6875 -2.28125 3.757813 -2.128906 C 3.820313 -1.972656 3.929688 -1.851563 4.085938 -1.761719 C 4.234375 -1.667969 4.453125 -1.621094 4.734375 -1.625 C 4.945313 -1.621094 5.222656 -1.648438 5.570313 -1.699219 Z M 5.570313 -1.699219 "/>
</symbol>
<symbol overflow="visible" id="glyph1-11">
<path style="stroke:none;" d="M 1.421875 0 L 1.421875 -15.460938 L 3.320313 -15.460938 L 3.320313 -9.914063 C 4.207031 -10.9375 5.324219 -11.449219 6.675781 -11.453125 C 7.503906 -11.449219 8.226563 -11.285156 8.839844 -10.960938 C 9.449219 -10.632813 9.886719 -10.179688 10.152344 -9.605469 C 10.414063 -9.027344 10.546875 -8.191406 10.546875 -7.097656 L 10.546875 0 L 8.648438 0 L 8.648438 -7.097656 C 8.648438 -8.042969 8.441406 -8.734375 8.03125 -9.171875 C 7.617188 -9.601563 7.035156 -9.820313 6.285156 -9.820313 C 5.71875 -9.820313 5.1875 -9.671875 4.695313 -9.382813 C 4.195313 -9.085938 3.84375 -8.691406 3.636719 -8.195313 C 3.421875 -7.691406 3.316406 -7.003906 3.320313 -6.128906 L 3.320313 0 Z M 1.421875 0 "/>
</symbol>
<symbol overflow="visible" id="glyph1-12">
<path style="stroke:none;" d="M 9.089844 -3.605469 L 11.054688 -3.363281 C 10.742188 -2.214844 10.167969 -1.324219 9.332031 -0.695313 C 8.492188 -0.0625 7.425781 0.25 6.128906 0.253906 C 4.488281 0.25 3.1875 -0.25 2.230469 -1.257813 C 1.265625 -2.265625 0.785156 -3.679688 0.789063 -5.503906 C 0.785156 -7.386719 1.269531 -8.851563 2.246094 -9.890625 C 3.214844 -10.929688 4.476563 -11.449219 6.023438 -11.453125 C 7.519531 -11.449219 8.742188 -10.9375 9.691406 -9.921875 C 10.640625 -8.898438 11.113281 -7.464844 11.117188 -5.621094 C 11.113281 -5.503906 11.109375 -5.335938 11.105469 -5.117188 L 2.753906 -5.117188 C 2.824219 -3.882813 3.171875 -2.941406 3.796875 -2.289063 C 4.421875 -1.632813 5.199219 -1.304688 6.136719 -1.308594 C 6.832031 -1.304688 7.429688 -1.488281 7.921875 -1.855469 C 8.414063 -2.21875 8.800781 -2.800781 9.089844 -3.605469 Z M 2.859375 -6.675781 L 9.113281 -6.675781 C 9.023438 -7.613281 8.785156 -8.320313 8.394531 -8.796875 C 7.789063 -9.523438 7.003906 -9.890625 6.042969 -9.894531 C 5.167969 -9.890625 4.4375 -9.597656 3.84375 -9.015625 C 3.25 -8.429688 2.921875 -7.648438 2.859375 -6.675781 Z M 2.859375 -6.675781 "/>
</symbol>
<symbol overflow="visible" id="glyph1-13">
<path style="stroke:none;" d="M 1.023438 -13.4375 L 1.023438 -15.261719 L 11.03125 -15.261719 L 11.03125 -13.785156 C 10.042969 -12.734375 9.066406 -11.34375 8.105469 -9.609375 C 7.136719 -7.871094 6.390625 -6.082031 5.863281 -4.25 C 5.480469 -2.953125 5.238281 -1.539063 5.136719 0 L 3.183594 0 C 3.203125 -1.214844 3.445313 -2.683594 3.902344 -4.40625 C 4.355469 -6.128906 5.007813 -7.789063 5.867188 -9.390625 C 6.71875 -10.988281 7.628906 -12.335938 8.59375 -13.4375 Z M 1.023438 -13.4375 "/>
</symbol>
<symbol overflow="visible" id="glyph1-14">
<path style="stroke:none;" d="M 0.898438 -4.050781 L 2.890625 -4.21875 C 3.03125 -3.246094 3.375 -2.515625 3.917969 -2.027344 C 4.453125 -1.539063 5.101563 -1.292969 5.863281 -1.296875 C 6.773438 -1.292969 7.546875 -1.636719 8.183594 -2.328125 C 8.8125 -3.015625 9.128906 -3.933594 9.132813 -5.074219 C 9.128906 -6.152344 8.824219 -7.003906 8.21875 -7.632813 C 7.609375 -8.257813 6.8125 -8.570313 5.832031 -8.574219 C 5.214844 -8.570313 4.664063 -8.433594 4.175781 -8.15625 C 3.679688 -7.878906 3.292969 -7.519531 3.015625 -7.078125 L 1.234375 -7.308594 L 2.730469 -15.25 L 10.421875 -15.25 L 10.421875 -13.4375 L 4.25 -13.4375 L 3.417969 -9.28125 C 4.339844 -9.925781 5.316406 -10.246094 6.339844 -10.25 C 7.6875 -10.246094 8.824219 -9.78125 9.753906 -8.847656 C 10.679688 -7.910156 11.144531 -6.707031 11.148438 -5.242188 C 11.144531 -3.839844 10.738281 -2.628906 9.925781 -1.613281 C 8.933594 -0.359375 7.578125 0.261719 5.863281 0.265625 C 4.453125 0.261719 3.304688 -0.128906 2.417969 -0.914063 C 1.527344 -1.703125 1.019531 -2.746094 0.898438 -4.050781 Z M 0.898438 -4.050781 "/>
</symbol>
<symbol overflow="visible" id="glyph1-15">
<path style="stroke:none;" d="M 0.898438 -7.625 C 0.894531 -9.449219 1.082031 -10.921875 1.460938 -12.039063 C 1.832031 -13.152344 2.390625 -14.011719 3.136719 -14.617188 C 3.875 -15.21875 4.808594 -15.519531 5.9375 -15.523438 C 6.765625 -15.519531 7.496094 -15.355469 8.121094 -15.023438 C 8.746094 -14.6875 9.261719 -14.203125 9.667969 -13.578125 C 10.074219 -12.945313 10.394531 -12.179688 10.628906 -11.28125 C 10.863281 -10.375 10.980469 -9.15625 10.980469 -7.625 C 10.980469 -5.808594 10.792969 -4.347656 10.417969 -3.234375 C 10.042969 -2.117188 9.484375 -1.253906 8.746094 -0.648438 C 8.003906 -0.0390625 7.066406 0.261719 5.9375 0.265625 C 4.445313 0.261719 3.277344 -0.269531 2.425781 -1.339844 C 1.40625 -2.625 0.894531 -4.71875 0.898438 -7.625 Z M 2.847656 -7.625 C 2.847656 -5.082031 3.144531 -3.394531 3.738281 -2.554688 C 4.332031 -1.714844 5.0625 -1.292969 5.9375 -1.296875 C 6.804688 -1.292969 7.539063 -1.714844 8.136719 -2.5625 C 8.726563 -3.402344 9.023438 -5.089844 9.027344 -7.625 C 9.023438 -10.167969 8.726563 -11.859375 8.136719 -12.699219 C 7.539063 -13.53125 6.800781 -13.949219 5.917969 -13.953125 C 5.042969 -13.949219 4.34375 -13.582031 3.828125 -12.847656 C 3.171875 -11.902344 2.847656 -10.160156 2.847656 -7.625 Z M 2.847656 -7.625 "/>
</symbol>
<symbol overflow="visible" id="glyph1-16">
<path style="stroke:none;" d="M 1.421875 4.292969 L 1.421875 -11.199219 L 3.152344 -11.199219 L 3.152344 -9.746094 C 3.558594 -10.3125 4.019531 -10.742188 4.535156 -11.027344 C 5.046875 -11.308594 5.667969 -11.449219 6.402344 -11.453125 C 7.355469 -11.449219 8.199219 -11.203125 8.933594 -10.714844 C 9.664063 -10.21875 10.214844 -9.523438 10.589844 -8.632813 C 10.957031 -7.734375 11.144531 -6.753906 11.148438 -5.683594 C 11.144531 -4.535156 10.9375 -3.5 10.53125 -2.585938 C 10.117188 -1.664063 9.519531 -0.960938 8.738281 -0.476563 C 7.949219 0.0117188 7.125 0.25 6.265625 0.253906 C 5.628906 0.25 5.0625 0.121094 4.5625 -0.144531 C 4.058594 -0.410156 3.644531 -0.75 3.320313 -1.160156 L 3.320313 4.292969 Z M 3.144531 -5.539063 C 3.140625 -4.09375 3.433594 -3.027344 4.019531 -2.339844 C 4.601563 -1.648438 5.304688 -1.304688 6.136719 -1.308594 C 6.976563 -1.304688 7.699219 -1.664063 8.304688 -2.378906 C 8.902344 -3.089844 9.203125 -4.195313 9.207031 -5.695313 C 9.203125 -7.121094 8.910156 -8.1875 8.324219 -8.902344 C 7.734375 -9.609375 7.035156 -9.964844 6.222656 -9.96875 C 5.410156 -9.964844 4.691406 -9.585938 4.074219 -8.832031 C 3.449219 -8.074219 3.140625 -6.976563 3.144531 -5.539063 Z M 3.144531 -5.539063 "/>
</symbol>
<symbol overflow="visible" id="glyph1-17">
<path style="stroke:none;" d="M 0.664063 -3.34375 L 2.542969 -3.640625 C 2.644531 -2.882813 2.9375 -2.308594 3.421875 -1.910156 C 3.902344 -1.507813 4.574219 -1.304688 5.441406 -1.308594 C 6.3125 -1.304688 6.960938 -1.484375 7.382813 -1.839844 C 7.804688 -2.195313 8.015625 -2.609375 8.015625 -3.089844 C 8.015625 -3.515625 7.828125 -3.855469 7.457031 -4.101563 C 7.195313 -4.269531 6.546875 -4.484375 5.515625 -4.746094 C 4.121094 -5.097656 3.15625 -5.398438 2.621094 -5.65625 C 2.078125 -5.910156 1.671875 -6.265625 1.394531 -6.722656 C 1.117188 -7.171875 0.976563 -7.675781 0.980469 -8.226563 C 0.976563 -8.726563 1.09375 -9.1875 1.324219 -9.613281 C 1.550781 -10.035156 1.859375 -10.386719 2.257813 -10.671875 C 2.546875 -10.886719 2.949219 -11.074219 3.464844 -11.226563 C 3.972656 -11.375 4.519531 -11.449219 5.105469 -11.453125 C 5.980469 -11.449219 6.753906 -11.324219 7.417969 -11.074219 C 8.082031 -10.820313 8.570313 -10.476563 8.890625 -10.046875 C 9.203125 -9.613281 9.421875 -9.035156 9.546875 -8.3125 L 7.6875 -8.058594 C 7.601563 -8.628906 7.355469 -9.078125 6.953125 -9.40625 C 6.546875 -9.726563 5.976563 -9.890625 5.242188 -9.894531 C 4.367188 -9.890625 3.746094 -9.746094 3.375 -9.460938 C 3 -9.167969 2.8125 -8.832031 2.816406 -8.449219 C 2.8125 -8.199219 2.890625 -7.976563 3.046875 -7.785156 C 3.203125 -7.578125 3.445313 -7.410156 3.777344 -7.277344 C 3.964844 -7.207031 4.523438 -7.042969 5.453125 -6.792969 C 6.792969 -6.429688 7.730469 -6.136719 8.261719 -5.910156 C 8.792969 -5.679688 9.207031 -5.347656 9.511719 -4.914063 C 9.8125 -4.476563 9.964844 -3.933594 9.96875 -3.289063 C 9.964844 -2.652344 9.78125 -2.058594 9.414063 -1.5 C 9.042969 -0.941406 8.507813 -0.507813 7.8125 -0.203125 C 7.113281 0.101563 6.328125 0.25 5.453125 0.253906 C 3.996094 0.25 2.886719 -0.046875 2.125 -0.652344 C 1.359375 -1.253906 0.871094 -2.152344 0.664063 -3.34375 Z M 0.664063 -3.34375 "/>
</symbol>
<symbol overflow="visible" id="glyph2-0">
<path style="stroke:none;" d=""/>
</symbol>
<symbol overflow="visible" id="glyph3-0">
<path style="stroke:none;" d="M 0 -1.203125 L -11.167969 -1.203125 L -11.167969 -5.414063 C -11.167969 -6.15625 -11.128906 -6.722656 -11.058594 -7.113281 C -10.964844 -7.660156 -10.792969 -8.117188 -10.535156 -8.492188 C -10.277344 -8.859375 -9.917969 -9.160156 -9.457031 -9.386719 C -8.996094 -9.613281 -8.488281 -9.726563 -7.9375 -9.726563 C -6.984375 -9.726563 -6.179688 -9.421875 -5.523438 -8.820313 C -4.863281 -8.210938 -4.535156 -7.121094 -4.539063 -5.546875 L -4.539063 -2.679688 L 0 -2.679688 Z M -5.859375 -2.679688 L -5.859375 -5.566406 C -5.859375 -6.519531 -6.035156 -7.195313 -6.390625 -7.601563 C -6.746094 -8 -7.246094 -8.203125 -7.890625 -8.203125 C -8.355469 -8.203125 -8.753906 -8.082031 -9.089844 -7.847656 C -9.417969 -7.609375 -9.640625 -7.300781 -9.75 -6.917969 C -9.8125 -6.664063 -9.84375 -6.203125 -9.847656 -5.539063 L -9.847656 -2.679688 Z M -5.859375 -2.679688 "/>
</symbol>
<symbol overflow="visible" id="glyph3-1">
<path style="stroke:none;" d="M -2.605469 -6.566406 L -2.429688 -7.984375 C -1.597656 -7.757813 -0.953125 -7.34375 -0.5 -6.742188 C -0.0429688 -6.136719 0.179688 -5.363281 0.183594 -4.425781 C 0.179688 -3.238281 -0.179688 -2.300781 -0.910156 -1.609375 C -1.636719 -0.914063 -2.660156 -0.566406 -3.976563 -0.570313 C -5.332031 -0.566406 -6.386719 -0.917969 -7.144531 -1.621094 C -7.894531 -2.320313 -8.273438 -3.230469 -8.273438 -4.347656 C -8.273438 -5.429688 -7.902344 -6.3125 -7.167969 -7 C -6.425781 -7.683594 -5.390625 -8.027344 -4.058594 -8.027344 C -3.976563 -8.027344 -3.855469 -8.023438 -3.695313 -8.019531 L -3.695313 -1.988281 C -2.800781 -2.035156 -2.121094 -2.289063 -1.652344 -2.742188 C -1.179688 -3.195313 -0.941406 -3.757813 -0.945313 -4.433594 C -0.941406 -4.933594 -1.074219 -5.363281 -1.339844 -5.71875 C -1.601563 -6.074219 -2.023438 -6.355469 -2.605469 -6.566406 Z M -4.820313 -2.0625 L -4.820313 -6.582031 C -5.5 -6.515625 -6.011719 -6.34375 -6.351563 -6.0625 C -6.878906 -5.621094 -7.140625 -5.054688 -7.144531 -4.363281 C -7.140625 -3.734375 -6.929688 -3.207031 -6.511719 -2.777344 C -6.085938 -2.347656 -5.523438 -2.109375 -4.820313 -2.0625 Z M -4.820313 -2.0625 "/>
</symbol>
<symbol overflow="visible" id="glyph3-2">
<path style="stroke:none;" d="M 0 -1.011719 L -8.089844 -1.011719 L -8.089844 -2.246094 L -6.863281 -2.246094 C -7.433594 -2.558594 -7.8125 -2.851563 -7.996094 -3.117188 C -8.179688 -3.382813 -8.273438 -3.675781 -8.273438 -4 C -8.273438 -4.457031 -8.125 -4.925781 -7.832031 -5.40625 L -6.558594 -4.9375 C -6.753906 -4.597656 -6.855469 -4.261719 -6.855469 -3.929688 C -6.855469 -3.628906 -6.765625 -3.359375 -6.585938 -3.121094 C -6.40625 -2.882813 -6.15625 -2.714844 -5.835938 -2.613281 C -5.34375 -2.457031 -4.808594 -2.378906 -4.234375 -2.382813 L 0 -2.382813 Z M 0 -1.011719 "/>
</symbol>
<symbol overflow="visible" id="glyph3-3">
<path style="stroke:none;" d="M -2.964844 -6.308594 L -2.789063 -7.65625 C -1.859375 -7.503906 -1.128906 -7.125 -0.605469 -6.523438 C -0.078125 -5.914063 0.179688 -5.171875 0.183594 -4.289063 C 0.179688 -3.179688 -0.179688 -2.289063 -0.902344 -1.617188 C -1.625 -0.945313 -2.660156 -0.609375 -4.015625 -0.609375 C -4.882813 -0.609375 -5.648438 -0.753906 -6.304688 -1.042969 C -6.960938 -1.332031 -7.453125 -1.769531 -7.78125 -2.363281 C -8.109375 -2.953125 -8.273438 -3.597656 -8.273438 -4.296875 C -8.273438 -5.171875 -8.050781 -5.890625 -7.605469 -6.449219 C -7.160156 -7.007813 -6.527344 -7.367188 -5.710938 -7.527344 L -5.507813 -6.191406 C -6.046875 -6.0625 -6.453125 -5.839844 -6.730469 -5.519531 C -7.003906 -5.195313 -7.140625 -4.804688 -7.144531 -4.347656 C -7.140625 -3.65625 -6.894531 -3.09375 -6.402344 -2.664063 C -5.90625 -2.230469 -5.121094 -2.015625 -4.050781 -2.019531 C -2.960938 -2.015625 -2.171875 -2.222656 -1.683594 -2.644531 C -1.1875 -3.058594 -0.941406 -3.601563 -0.945313 -4.273438 C -0.941406 -4.808594 -1.105469 -5.257813 -1.4375 -5.621094 C -1.765625 -5.980469 -2.277344 -6.210938 -2.964844 -6.308594 Z M -2.964844 -6.308594 "/>
</symbol>
<symbol overflow="visible" id="glyph3-4">
<path style="stroke:none;" d="M 0 -1.027344 L -8.089844 -1.027344 L -8.089844 -2.261719 L -6.9375 -2.261719 C -7.828125 -2.855469 -8.273438 -3.710938 -8.273438 -4.835938 C -8.273438 -5.320313 -8.183594 -5.769531 -8.007813 -6.179688 C -7.832031 -6.585938 -7.601563 -6.890625 -7.320313 -7.097656 C -7.03125 -7.296875 -6.695313 -7.441406 -6.308594 -7.527344 C -6.050781 -7.574219 -5.605469 -7.597656 -4.972656 -7.601563 L 0 -7.601563 L 0 -6.230469 L -4.921875 -6.230469 C -5.476563 -6.226563 -5.890625 -6.175781 -6.171875 -6.070313 C -6.445313 -5.960938 -6.667969 -5.769531 -6.835938 -5.503906 C -7 -5.230469 -7.082031 -4.914063 -7.085938 -4.546875 C -7.082031 -3.960938 -6.898438 -3.457031 -6.527344 -3.035156 C -6.15625 -2.609375 -5.453125 -2.394531 -4.417969 -2.398438 L 0 -2.398438 Z M 0 -1.027344 "/>
</symbol>
<symbol overflow="visible" id="glyph3-5">
<path style="stroke:none;" d="M -1.226563 -4.023438 L -0.015625 -4.21875 C 0.0664063 -3.832031 0.105469 -3.484375 0.105469 -3.183594 C 0.105469 -2.683594 0.0273438 -2.296875 -0.128906 -2.023438 C -0.285156 -1.746094 -0.492188 -1.554688 -0.75 -1.445313 C -1.007813 -1.332031 -1.546875 -1.277344 -2.367188 -1.28125 L -7.023438 -1.28125 L -7.023438 -0.273438 L -8.089844 -0.273438 L -8.089844 -1.28125 L -10.09375 -1.28125 L -10.914063 -2.644531 L -8.089844 -2.644531 L -8.089844 -4.023438 L -7.023438 -4.023438 L -7.023438 -2.644531 L -2.292969 -2.644531 C -1.898438 -2.640625 -1.648438 -2.664063 -1.539063 -2.714844 C -1.425781 -2.761719 -1.335938 -2.84375 -1.269531 -2.953125 C -1.203125 -3.0625 -1.171875 -3.21875 -1.171875 -3.421875 C -1.171875 -3.570313 -1.1875 -3.769531 -1.226563 -4.023438 Z M -1.226563 -4.023438 "/>
</symbol>
<symbol overflow="visible" id="glyph3-6">
<path style="stroke:none;" d="M -0.996094 -6.308594 C -0.566406 -5.796875 -0.261719 -5.308594 -0.0820313 -4.839844 C 0.09375 -4.371094 0.179688 -3.867188 0.183594 -3.328125 C 0.179688 -2.4375 -0.0351563 -1.753906 -0.46875 -1.277344 C -0.902344 -0.800781 -1.457031 -0.5625 -2.132813 -0.5625 C -2.527344 -0.5625 -2.886719 -0.652344 -3.21875 -0.832031 C -3.542969 -1.011719 -3.808594 -1.246094 -4.007813 -1.542969 C -4.203125 -1.832031 -4.351563 -2.160156 -4.457031 -2.527344 C -4.523438 -2.792969 -4.589844 -3.199219 -4.660156 -3.746094 C -4.789063 -4.847656 -4.949219 -5.664063 -5.132813 -6.191406 C -5.320313 -6.195313 -5.4375 -6.199219 -5.492188 -6.199219 C -6.046875 -6.199219 -6.441406 -6.070313 -6.671875 -5.8125 C -6.980469 -5.460938 -7.136719 -4.9375 -7.136719 -4.25 C -7.136719 -3.601563 -7.023438 -3.125 -6.796875 -2.820313 C -6.570313 -2.507813 -6.167969 -2.28125 -5.597656 -2.140625 L -5.78125 -0.800781 C -6.351563 -0.921875 -6.8125 -1.121094 -7.167969 -1.402344 C -7.519531 -1.675781 -7.792969 -2.082031 -7.984375 -2.613281 C -8.175781 -3.140625 -8.273438 -3.75 -8.273438 -4.449219 C -8.273438 -5.136719 -8.191406 -5.699219 -8.027344 -6.132813 C -7.863281 -6.5625 -7.65625 -6.878906 -7.414063 -7.085938 C -7.164063 -7.285156 -6.855469 -7.429688 -6.480469 -7.511719 C -6.246094 -7.554688 -5.824219 -7.574219 -5.21875 -7.578125 L -3.390625 -7.578125 C -2.113281 -7.574219 -1.304688 -7.605469 -0.96875 -7.664063 C -0.628906 -7.722656 -0.308594 -7.835938 0 -8.011719 L 0 -6.582031 C -0.28125 -6.433594 -0.613281 -6.34375 -0.996094 -6.308594 Z M -4.058594 -6.191406 C -3.851563 -5.691406 -3.679688 -4.945313 -3.542969 -3.953125 C -3.460938 -3.386719 -3.371094 -2.988281 -3.269531 -2.757813 C -3.167969 -2.519531 -3.015625 -2.339844 -2.820313 -2.214844 C -2.621094 -2.089844 -2.40625 -2.027344 -2.171875 -2.027344 C -1.800781 -2.027344 -1.496094 -2.164063 -1.253906 -2.441406 C -1.011719 -2.714844 -0.890625 -3.121094 -0.890625 -3.65625 C -0.890625 -4.183594 -1.003906 -4.652344 -1.238281 -5.066406 C -1.464844 -5.476563 -1.78125 -5.777344 -2.1875 -5.972656 C -2.492188 -6.113281 -2.949219 -6.1875 -3.558594 -6.191406 Z M -4.058594 -6.191406 "/>
</symbol>
<symbol overflow="visible" id="glyph3-7">
<path style="stroke:none;" d="M 0.671875 -0.777344 L 0.867188 -2.109375 C 1.277344 -2.164063 1.574219 -2.316406 1.765625 -2.574219 C 2.015625 -2.910156 2.144531 -3.375 2.148438 -3.96875 C 2.144531 -4.601563 2.015625 -5.09375 1.765625 -5.4375 C 1.507813 -5.78125 1.152344 -6.015625 0.699219 -6.140625 C 0.417969 -6.210938 -0.164063 -6.242188 -1.058594 -6.238281 C -0.351563 -5.636719 0 -4.890625 0 -4 C 0 -2.886719 -0.398438 -2.027344 -1.203125 -1.417969 C -2 -0.808594 -2.964844 -0.503906 -4.089844 -0.503906 C -4.863281 -0.503906 -5.574219 -0.640625 -6.226563 -0.921875 C -6.878906 -1.195313 -7.382813 -1.601563 -7.738281 -2.136719 C -8.09375 -2.664063 -8.273438 -3.289063 -8.273438 -4.007813 C -8.273438 -4.960938 -7.886719 -5.746094 -7.113281 -6.367188 L -8.089844 -6.367188 L -8.089844 -7.632813 L -1.097656 -7.632813 C 0.164063 -7.628906 1.050781 -7.5 1.578125 -7.246094 C 2.101563 -6.988281 2.519531 -6.582031 2.824219 -6.027344 C 3.128906 -5.46875 3.28125 -4.785156 3.28125 -3.976563 C 3.28125 -3.007813 3.0625 -2.226563 2.628906 -1.636719 C 2.195313 -1.039063 1.542969 -0.753906 0.671875 -0.777344 Z M -4.1875 -1.910156 C -3.125 -1.910156 -2.351563 -2.121094 -1.867188 -2.542969 C -1.378906 -2.964844 -1.136719 -3.492188 -1.136719 -4.128906 C -1.136719 -4.757813 -1.378906 -5.285156 -1.863281 -5.710938 C -2.347656 -6.136719 -3.105469 -6.351563 -4.144531 -6.351563 C -5.128906 -6.351563 -5.875 -6.128906 -6.382813 -5.691406 C -6.882813 -5.25 -7.136719 -4.722656 -7.136719 -4.105469 C -7.136719 -3.492188 -6.886719 -2.972656 -6.394531 -2.550781 C -5.894531 -2.121094 -5.160156 -1.910156 -4.1875 -1.910156 Z M -4.1875 -1.910156 "/>
</symbol>
<symbol overflow="visible" id="glyph4-0">
<path style="stroke:none;" d="M -6.355469 -0.746094 C -7.875 -0.742188 -9.101563 -0.898438 -10.03125 -1.214844 C -10.960938 -1.527344 -11.675781 -1.996094 -12.179688 -2.613281 C -12.683594 -3.230469 -12.9375 -4.007813 -12.9375 -4.949219 C -12.9375 -5.636719 -12.796875 -6.242188 -12.519531 -6.765625 C -12.238281 -7.285156 -11.835938 -7.714844 -11.316406 -8.058594 C -10.789063 -8.394531 -10.152344 -8.664063 -9.398438 -8.859375 C -8.644531 -9.050781 -7.628906 -9.144531 -6.355469 -9.148438 C -4.839844 -9.144531 -3.617188 -8.992188 -2.691406 -8.683594 C -1.761719 -8.371094 -1.046875 -7.90625 -0.539063 -7.289063 C -0.0351563 -6.671875 0.214844 -5.890625 0.21875 -4.949219 C 0.214844 -3.703125 -0.226563 -2.726563 -1.117188 -2.023438 C -2.1875 -1.167969 -3.933594 -0.742188 -6.355469 -0.746094 Z M -6.355469 -2.375 C -4.234375 -2.371094 -2.824219 -2.621094 -2.128906 -3.117188 C -1.425781 -3.609375 -1.078125 -4.21875 -1.082031 -4.949219 C -1.078125 -5.671875 -1.429688 -6.28125 -2.136719 -6.78125 C -2.835938 -7.273438 -4.242188 -7.523438 -6.355469 -7.523438 C -8.472656 -7.523438 -9.882813 -7.273438 -10.582031 -6.78125 C -11.277344 -6.28125 -11.625 -5.664063 -11.628906 -4.929688 C -11.625 -4.199219 -11.316406 -3.621094 -10.703125 -3.191406 C -9.917969 -2.644531 -8.46875 -2.371094 -6.355469 -2.375 Z M -6.355469 -2.375 "/>
</symbol>
<symbol overflow="visible" id="glyph4-1">
<path style="stroke:none;" d="M -1.519531 -9.0625 L 0 -9.0625 L 0 -0.546875 C -0.378906 -0.53125 -0.742188 -0.59375 -1.097656 -0.730469 C -1.675781 -0.945313 -2.25 -1.292969 -2.8125 -1.769531 C -3.375 -2.246094 -4.023438 -2.933594 -4.765625 -3.839844 C -5.90625 -5.238281 -6.816406 -6.1875 -7.492188 -6.679688 C -8.160156 -7.171875 -8.792969 -7.417969 -9.394531 -7.417969 C -10.019531 -7.417969 -10.550781 -7.191406 -10.980469 -6.746094 C -11.410156 -6.292969 -11.625 -5.710938 -11.628906 -4.992188 C -11.625 -4.230469 -11.394531 -3.621094 -10.941406 -3.164063 C -10.480469 -2.703125 -9.847656 -2.46875 -9.042969 -2.46875 L -9.210938 -0.84375 C -10.421875 -0.953125 -11.34375 -1.371094 -11.984375 -2.101563 C -12.617188 -2.824219 -12.9375 -3.800781 -12.9375 -5.027344 C -12.9375 -6.261719 -12.59375 -7.238281 -11.910156 -7.960938 C -11.222656 -8.679688 -10.371094 -9.039063 -9.359375 -9.042969 C -8.839844 -9.039063 -8.335938 -8.933594 -7.839844 -8.726563 C -7.339844 -8.511719 -6.8125 -8.164063 -6.265625 -7.675781 C -5.710938 -7.1875 -4.957031 -6.375 -4 -5.238281 C -3.199219 -4.285156 -2.660156 -3.675781 -2.378906 -3.410156 C -2.09375 -3.140625 -1.804688 -2.917969 -1.519531 -2.742188 Z M -1.519531 -9.0625 "/>
</symbol>
<symbol overflow="visible" id="glyph4-2">
<path style="stroke:none;" d="M 0 -5.820313 L -3.085938 -5.820313 L -3.085938 -0.226563 L -4.535156 -0.226563 L -12.882813 -6.109375 L -12.882813 -7.398438 L -4.535156 -7.398438 L -4.535156 -9.140625 L -3.085938 -9.140625 L -3.085938 -7.398438 L 0 -7.398438 Z M -4.535156 -5.820313 L -10.34375 -5.820313 L -4.535156 -1.785156 Z M -4.535156 -5.820313 "/>
</symbol>
<symbol overflow="visible" id="glyph4-3">
<path style="stroke:none;" d="M -9.730469 -8.957031 L -9.605469 -7.382813 C -10.222656 -7.242188 -10.675781 -7.042969 -10.960938 -6.785156 C -11.410156 -6.355469 -11.636719 -5.828125 -11.636719 -5.203125 C -11.636719 -4.695313 -11.496094 -4.25 -11.214844 -3.875 C -10.851563 -3.375 -10.320313 -2.984375 -9.625 -2.695313 C -8.925781 -2.40625 -7.933594 -2.257813 -6.644531 -2.25 C -7.222656 -2.628906 -7.652344 -3.09375 -7.9375 -3.644531 C -8.214844 -4.195313 -8.355469 -4.773438 -8.359375 -5.378906 C -8.355469 -6.433594 -7.96875 -7.328125 -7.195313 -8.070313 C -6.417969 -8.808594 -5.414063 -9.179688 -4.183594 -9.183594 C -3.371094 -9.179688 -2.617188 -9.007813 -1.925781 -8.660156 C -1.230469 -8.3125 -0.699219 -7.832031 -0.332031 -7.226563 C 0.0351563 -6.613281 0.214844 -5.921875 0.21875 -5.148438 C 0.214844 -3.828125 -0.265625 -2.753906 -1.234375 -1.921875 C -2.199219 -1.089844 -3.796875 -0.671875 -6.03125 -0.675781 C -8.515625 -0.671875 -10.328125 -1.132813 -11.460938 -2.054688 C -12.445313 -2.855469 -12.9375 -3.9375 -12.9375 -5.300781 C -12.9375 -6.3125 -12.652344 -7.140625 -12.085938 -7.789063 C -11.515625 -8.433594 -10.730469 -8.824219 -9.730469 -8.957031 Z M -4.175781 -2.496094 C -3.628906 -2.496094 -3.105469 -2.609375 -2.609375 -2.84375 C -2.109375 -3.070313 -1.730469 -3.394531 -1.472656 -3.8125 C -1.207031 -4.226563 -1.078125 -4.664063 -1.082031 -5.125 C -1.078125 -5.789063 -1.347656 -6.363281 -1.890625 -6.84375 C -2.425781 -7.324219 -3.15625 -7.5625 -4.085938 -7.566406 C -4.972656 -7.5625 -5.675781 -7.328125 -6.191406 -6.855469 C -6.703125 -6.378906 -6.960938 -5.78125 -6.960938 -5.0625 C -6.960938 -4.347656 -6.703125 -3.738281 -6.191406 -3.242188 C -5.675781 -2.742188 -5.003906 -2.496094 -4.175781 -2.496094 Z M -4.175781 -2.496094 "/>
</symbol>
<symbol overflow="visible" id="glyph4-4">
<path style="stroke:none;" d="M -6.988281 -3.179688 C -7.226563 -2.519531 -7.570313 -2.035156 -8.015625 -1.722656 C -8.460938 -1.40625 -8.992188 -1.246094 -9.617188 -1.25 C -10.550781 -1.246094 -11.339844 -1.582031 -11.980469 -2.257813 C -12.617188 -2.929688 -12.9375 -3.828125 -12.9375 -4.949219 C -12.9375 -6.070313 -12.609375 -6.976563 -11.957031 -7.664063 C -11.300781 -8.347656 -10.503906 -8.6875 -9.570313 -8.691406 C -8.96875 -8.6875 -8.449219 -8.53125 -8.011719 -8.21875 C -7.566406 -7.902344 -7.226563 -7.425781 -6.988281 -6.792969 C -6.726563 -7.582031 -6.308594 -8.183594 -5.738281 -8.597656 C -5.160156 -9.007813 -4.476563 -9.214844 -3.683594 -9.21875 C -2.578125 -9.214844 -1.652344 -8.828125 -0.90625 -8.050781 C -0.15625 -7.269531 0.214844 -6.242188 0.21875 -4.976563 C 0.214844 -3.699219 -0.15625 -2.675781 -0.910156 -1.898438 C -1.660156 -1.117188 -2.601563 -0.726563 -3.726563 -0.730469 C -4.5625 -0.726563 -5.261719 -0.9375 -5.832031 -1.367188 C -6.394531 -1.789063 -6.78125 -2.394531 -6.988281 -3.179688 Z M -9.667969 -2.867188 C -9.058594 -2.863281 -8.558594 -3.058594 -8.171875 -3.453125 C -7.785156 -3.84375 -7.59375 -4.355469 -7.59375 -4.984375 C -7.59375 -5.589844 -7.785156 -6.089844 -8.167969 -6.480469 C -8.550781 -6.871094 -9.019531 -7.066406 -9.578125 -7.066406 C -10.15625 -7.066406 -10.644531 -6.863281 -11.042969 -6.464844 C -11.4375 -6.058594 -11.636719 -5.558594 -11.636719 -4.964844 C -11.636719 -4.359375 -11.441406 -3.859375 -11.054688 -3.464844 C -10.667969 -3.0625 -10.207031 -2.863281 -9.667969 -2.867188 Z M -3.71875 -2.355469 C -3.261719 -2.355469 -2.824219 -2.460938 -2.40625 -2.675781 C -1.980469 -2.886719 -1.652344 -3.203125 -1.425781 -3.628906 C -1.191406 -4.046875 -1.078125 -4.503906 -1.082031 -4.992188 C -1.078125 -5.746094 -1.320313 -6.367188 -1.808594 -6.863281 C -2.292969 -7.351563 -2.910156 -7.597656 -3.664063 -7.601563 C -4.421875 -7.597656 -5.054688 -7.34375 -5.554688 -6.839844 C -6.050781 -6.332031 -6.296875 -5.699219 -6.300781 -4.9375 C -6.296875 -4.191406 -6.050781 -3.574219 -5.5625 -3.089844 C -5.066406 -2.597656 -4.453125 -2.355469 -3.71875 -2.355469 Z M -3.71875 -2.355469 "/>
</symbol>
<symbol overflow="visible" id="glyph4-5">
<path style="stroke:none;" d="M 0 -6.707031 L 0 -5.125 L -10.082031 -5.125 C -9.714844 -4.742188 -9.351563 -4.242188 -8.988281 -3.625 C -8.625 -3.003906 -8.351563 -2.449219 -8.171875 -1.960938 L -9.703125 -1.960938 C -10.117188 -2.84375 -10.621094 -3.617188 -11.214844 -4.28125 C -11.804688 -4.941406 -12.378906 -5.410156 -12.9375 -5.6875 L -12.9375 -6.707031 Z M 0 -6.707031 "/>
</symbol>
<symbol overflow="visible" id="glyph5-0">
<path style="stroke:none;" d="M 0.65625 -1.984375 L 1.671875 -2.078125 C 1.75 -1.601563 1.914063 -1.257813 2.160156 -1.042969 C 2.398438 -0.824219 2.710938 -0.714844 3.09375 -0.71875 C 3.414063 -0.714844 3.695313 -0.789063 3.945313 -0.941406 C 4.1875 -1.085938 4.390625 -1.285156 4.546875 -1.535156 C 4.703125 -1.785156 4.832031 -2.121094 4.9375 -2.542969 C 5.042969 -2.964844 5.097656 -3.394531 5.097656 -3.832031 C 5.097656 -3.878906 5.09375 -3.949219 5.09375 -4.042969 C 4.875 -3.707031 4.585938 -3.433594 4.226563 -3.226563 C 3.859375 -3.015625 3.464844 -2.910156 3.039063 -2.914063 C 2.328125 -2.910156 1.726563 -3.167969 1.238281 -3.6875 C 0.742188 -4.199219 0.496094 -4.878906 0.5 -5.726563 C 0.496094 -6.59375 0.753906 -7.296875 1.269531 -7.828125 C 1.78125 -8.359375 2.425781 -8.625 3.199219 -8.625 C 3.757813 -8.625 4.265625 -8.472656 4.730469 -8.171875 C 5.191406 -7.871094 5.542969 -7.441406 5.785156 -6.886719 C 6.023438 -6.328125 6.144531 -5.523438 6.148438 -4.46875 C 6.144531 -3.371094 6.027344 -2.496094 5.789063 -1.847656 C 5.546875 -1.195313 5.191406 -0.703125 4.722656 -0.363281 C 4.253906 -0.0234375 3.703125 0.144531 3.070313 0.148438 C 2.398438 0.144531 1.847656 -0.0390625 1.421875 -0.410156 C 0.996094 -0.785156 0.742188 -1.308594 0.65625 -1.984375 Z M 4.976563 -5.777344 C 4.972656 -6.382813 4.8125 -6.863281 4.492188 -7.21875 C 4.167969 -7.570313 3.78125 -7.746094 3.328125 -7.75 C 2.859375 -7.746094 2.449219 -7.554688 2.101563 -7.175781 C 1.753906 -6.789063 1.582031 -6.292969 1.582031 -5.6875 C 1.582031 -5.136719 1.746094 -4.691406 2.074219 -4.355469 C 2.402344 -4.011719 2.808594 -3.84375 3.296875 -3.84375 C 3.785156 -3.84375 4.1875 -4.011719 4.503906 -4.355469 C 4.816406 -4.691406 4.972656 -5.167969 4.976563 -5.777344 Z M 4.976563 -5.777344 "/>
</symbol>
<symbol overflow="visible" id="glyph5-1">
<path style="stroke:none;" d="M 0.5 -4.234375 C 0.496094 -5.246094 0.601563 -6.0625 0.8125 -6.6875 C 1.019531 -7.304688 1.328125 -7.785156 1.742188 -8.121094 C 2.148438 -8.457031 2.667969 -8.625 3.296875 -8.625 C 3.757813 -8.625 4.164063 -8.53125 4.511719 -8.347656 C 4.855469 -8.160156 5.140625 -7.890625 5.371094 -7.542969 C 5.59375 -7.191406 5.773438 -6.765625 5.90625 -6.265625 C 6.035156 -5.761719 6.097656 -5.085938 6.101563 -4.234375 C 6.097656 -3.226563 5.996094 -2.414063 5.789063 -1.796875 C 5.578125 -1.175781 5.265625 -0.695313 4.859375 -0.359375 C 4.445313 -0.0195313 3.925781 0.144531 3.296875 0.148438 C 2.464844 0.144531 1.816406 -0.148438 1.347656 -0.742188 C 0.78125 -1.457031 0.496094 -2.621094 0.5 -4.234375 Z M 1.582031 -4.234375 C 1.582031 -2.824219 1.746094 -1.886719 2.074219 -1.417969 C 2.402344 -0.949219 2.808594 -0.714844 3.296875 -0.71875 C 3.777344 -0.714844 4.183594 -0.949219 4.519531 -1.421875 C 4.847656 -1.886719 5.015625 -2.824219 5.015625 -4.234375 C 5.015625 -5.648438 4.847656 -6.589844 4.519531 -7.054688 C 4.183594 -7.515625 3.773438 -7.746094 3.289063 -7.75 C 2.800781 -7.746094 2.414063 -7.542969 2.125 -7.136719 C 1.761719 -6.613281 1.582031 -5.644531 1.582031 -4.234375 Z M 1.582031 -4.234375 "/>
</symbol>
<symbol overflow="visible" id="glyph5-2">
<path style="stroke:none;" d="M 0.695313 -6.527344 C 0.691406 -7.136719 0.847656 -7.65625 1.160156 -8.089844 C 1.46875 -8.515625 1.914063 -8.730469 2.5 -8.734375 C 3.039063 -8.730469 3.484375 -8.539063 3.839844 -8.15625 C 4.191406 -7.773438 4.371094 -7.207031 4.371094 -6.460938 C 4.371094 -5.734375 4.191406 -5.175781 3.832031 -4.785156 C 3.472656 -4.390625 3.03125 -4.195313 2.515625 -4.195313 C 1.992188 -4.195313 1.558594 -4.386719 1.214844 -4.773438 C 0.863281 -5.160156 0.691406 -5.746094 0.695313 -6.527344 Z M 2.53125 -8.007813 C 2.269531 -8.003906 2.050781 -7.890625 1.878906 -7.667969 C 1.703125 -7.4375 1.617188 -7.023438 1.617188 -6.421875 C 1.617188 -5.867188 1.703125 -5.476563 1.878906 -5.257813 C 2.054688 -5.03125 2.273438 -4.921875 2.53125 -4.921875 C 2.796875 -4.921875 3.015625 -5.035156 3.191406 -5.261719 C 3.363281 -5.488281 3.449219 -5.902344 3.453125 -6.503906 C 3.449219 -7.058594 3.363281 -7.445313 3.1875 -7.671875 C 3.007813 -7.890625 2.789063 -8.003906 2.53125 -8.007813 Z M 2.539063 0.316406 L 7.234375 -8.734375 L 8.09375 -8.734375 L 3.410156 0.316406 Z M 6.25 -2.015625 C 6.246094 -2.632813 6.402344 -3.152344 6.714844 -3.582031 C 7.023438 -4.007813 7.472656 -4.222656 8.0625 -4.226563 C 8.601563 -4.222656 9.046875 -4.03125 9.398438 -3.648438 C 9.75 -3.261719 9.925781 -2.695313 9.929688 -1.953125 C 9.925781 -1.21875 9.746094 -0.660156 9.394531 -0.269531 C 9.035156 0.121094 8.59375 0.316406 8.070313 0.316406 C 7.546875 0.316406 7.113281 0.125 6.769531 -0.265625 C 6.417969 -0.652344 6.246094 -1.238281 6.25 -2.015625 Z M 8.09375 -3.5 C 7.824219 -3.496094 7.605469 -3.382813 7.433594 -3.160156 C 7.257813 -2.929688 7.171875 -2.515625 7.171875 -1.910156 C 7.171875 -1.363281 7.257813 -0.976563 7.433594 -0.75 C 7.609375 -0.523438 7.828125 -0.410156 8.085938 -0.410156 C 8.355469 -0.410156 8.574219 -0.523438 8.75 -0.75 C 8.921875 -0.976563 9.011719 -1.390625 9.011719 -1.992188 C 9.011719 -2.546875 8.921875 -2.933594 8.746094 -3.160156 C 8.570313 -3.382813 8.351563 -3.496094 8.09375 -3.5 Z M 8.09375 -3.5 "/>
</symbol>
<symbol overflow="visible" id="glyph5-3">
<path style="stroke:none;" d="M 2.121094 -4.65625 C 1.683594 -4.816406 1.359375 -5.046875 1.148438 -5.34375 C 0.9375 -5.640625 0.832031 -5.996094 0.832031 -6.410156 C 0.832031 -7.035156 1.054688 -7.558594 1.503906 -7.984375 C 1.953125 -8.410156 2.550781 -8.625 3.296875 -8.625 C 4.042969 -8.625 4.648438 -8.40625 5.109375 -7.972656 C 5.566406 -7.535156 5.792969 -7.003906 5.796875 -6.382813 C 5.792969 -5.976563 5.6875 -5.628906 5.480469 -5.339844 C 5.269531 -5.042969 4.953125 -4.816406 4.53125 -4.65625 C 5.054688 -4.480469 5.457031 -4.203125 5.734375 -3.824219 C 6.007813 -3.4375 6.144531 -2.980469 6.148438 -2.453125 C 6.144531 -1.714844 5.886719 -1.097656 5.367188 -0.601563 C 4.84375 -0.101563 4.160156 0.144531 3.316406 0.148438 C 2.46875 0.144531 1.785156 -0.101563 1.265625 -0.605469 C 0.742188 -1.105469 0.480469 -1.734375 0.484375 -2.484375 C 0.480469 -3.039063 0.621094 -3.503906 0.910156 -3.886719 C 1.191406 -4.261719 1.597656 -4.519531 2.121094 -4.65625 Z M 1.910156 -6.445313 C 1.910156 -6.039063 2.039063 -5.707031 2.300781 -5.449219 C 2.5625 -5.191406 2.902344 -5.0625 3.320313 -5.0625 C 3.722656 -5.0625 4.054688 -5.1875 4.320313 -5.445313 C 4.578125 -5.695313 4.710938 -6.011719 4.710938 -6.386719 C 4.710938 -6.773438 4.574219 -7.097656 4.308594 -7.363281 C 4.035156 -7.625 3.703125 -7.757813 3.3125 -7.757813 C 2.90625 -7.757813 2.574219 -7.628906 2.308594 -7.371094 C 2.042969 -7.113281 1.910156 -6.804688 1.910156 -6.445313 Z M 1.570313 -2.476563 C 1.570313 -2.175781 1.640625 -1.886719 1.785156 -1.605469 C 1.925781 -1.324219 2.136719 -1.105469 2.421875 -0.949219 C 2.699219 -0.792969 3.003906 -0.714844 3.328125 -0.71875 C 3.832031 -0.714844 4.246094 -0.878906 4.578125 -1.207031 C 4.902344 -1.53125 5.066406 -1.941406 5.070313 -2.445313 C 5.066406 -2.945313 4.898438 -3.367188 4.5625 -3.703125 C 4.222656 -4.035156 3.800781 -4.199219 3.292969 -4.203125 C 2.792969 -4.199219 2.378906 -4.035156 2.058594 -3.710938 C 1.730469 -3.378906 1.570313 -2.96875 1.570313 -2.476563 Z M 1.570313 -2.476563 "/>
</symbol>
<symbol overflow="visible" id="glyph5-4">
<path style="stroke:none;" d="M 4.46875 0 L 3.414063 0 L 3.414063 -6.71875 C 3.160156 -6.476563 2.828125 -6.234375 2.414063 -5.996094 C 2 -5.75 1.628906 -5.570313 1.304688 -5.449219 L 1.304688 -6.46875 C 1.894531 -6.742188 2.410156 -7.078125 2.851563 -7.476563 C 3.292969 -7.871094 3.605469 -8.253906 3.789063 -8.625 L 4.46875 -8.625 Z M 4.46875 0 "/>
</symbol>
</g>
</defs>
<g id="surface6">
<rect x="0" y="0" width="659" height="415" style="fill:rgb(100%,100%,100%);fill-opacity:1;stroke:none;"/>
<path style="fill-rule:nonzero;fill:rgb(74.509804%,74.509804%,74.509804%);fill-opacity:1;stroke-width:0.75;stroke-linecap:round;stroke-linejoin:round;stroke:rgb(0%,0%,0%);stroke-opacity:1;stroke-miterlimit:10;" d="M 85.667969 341.558594 L 113.300781 341.558594 L 113.300781 87.289063 L 85.667969 87.289063 Z M 85.667969 341.558594 "/>
<path style="fill-rule:nonzero;fill:rgb(74.509804%,74.509804%,74.509804%);fill-opacity:1;stroke-width:0.75;stroke-linecap:round;stroke-linejoin:round;stroke:rgb(0%,0%,0%);stroke-opacity:1;stroke-miterlimit:10;" d="M 118.824219 341.558594 L 146.457031 341.558594 L 146.457031 318.957031 L 118.824219 318.957031 Z M 118.824219 341.558594 "/>
<path style="fill-rule:nonzero;fill:rgb(74.509804%,74.509804%,74.509804%);fill-opacity:1;stroke-width:0.75;stroke-linecap:round;stroke-linejoin:round;stroke:rgb(0%,0%,0%);stroke-opacity:1;stroke-miterlimit:10;" d="M 151.984375 341.558594 L 179.617188 341.558594 L 179.617188 338.734375 L 151.984375 338.734375 Z M 151.984375 341.558594 "/>
<path style="fill-rule:nonzero;fill:rgb(74.509804%,74.509804%,74.509804%);fill-opacity:1;stroke-width:0.75;stroke-linecap:round;stroke-linejoin:round;stroke:rgb(0%,0%,0%);stroke-opacity:1;stroke-miterlimit:10;" d="M 185.140625 341.558594 L 212.773438 341.558594 L 212.773438 338.734375 L 185.140625 338.734375 Z M 185.140625 341.558594 "/>
<path style="fill-rule:nonzero;fill:rgb(74.509804%,74.509804%,74.509804%);fill-opacity:1;stroke-width:0.75;stroke-linecap:round;stroke-linejoin:round;stroke:rgb(0%,0%,0%);stroke-opacity:1;stroke-miterlimit:10;" d="M 218.300781 341.558594 L 245.933594 341.558594 L 245.933594 338.734375 L 218.300781 338.734375 Z M 218.300781 341.558594 "/>
<path style="fill-rule:nonzero;fill:rgb(74.509804%,74.509804%,74.509804%);fill-opacity:1;stroke-width:0.75;stroke-linecap:round;stroke-linejoin:round;stroke:rgb(0%,0%,0%);stroke-opacity:1;stroke-miterlimit:10;" d="M 251.457031 341.558594 L 279.089844 341.558594 Z M 251.457031 341.558594 "/>
<g style="fill:rgb(0%,0%,0%);fill-opacity:1;">
  <use xlink:href="#glyph0-0" x="96.488281" y="367.480469"/>
</g>
<g style="fill:rgb(0%,0%,0%);fill-opacity:1;">
  <use xlink:href="#glyph0-1" x="127.144531" y="367.480469"/>
</g>
<g style="fill:rgb(0%,0%,0%);fill-opacity:1;">
  <use xlink:href="#glyph0-2" x="160.796875" y="367.480469"/>
</g>
<g style="fill:rgb(0%,0%,0%);fill-opacity:1;">
  <use xlink:href="#glyph0-3" x="192.953125" y="367.480469"/>
</g>
<g style="fill:rgb(0%,0%,0%);fill-opacity:1;">
  <use xlink:href="#glyph0-4" x="226.113281" y="367.480469"/>
</g>
<g style="fill:rgb(0%,0%,0%);fill-opacity:1;">
  <use xlink:href="#glyph0-5" x="259.269531" y="367.480469"/>
</g>
<g style="fill:rgb(0%,0%,0%);fill-opacity:1;">
  <use xlink:href="#glyph1-0" x="154.183594" y="35.136719"/>
</g>
<g style="fill:rgb(0%,0%,0%);fill-opacity:1;">
  <use xlink:href="#glyph1-1" x="168.589844" y="35.136719"/>
</g>
<g style="fill:rgb(0%,0%,0%);fill-opacity:1;">
  <use xlink:href="#glyph1-2" x="186.582031" y="35.136719"/>
</g>
<g style="fill:rgb(0%,0%,0%);fill-opacity:1;">
  <use xlink:href="#glyph1-3" x="191.382813" y="35.136719"/>
</g>
<g style="fill:rgb(0%,0%,0%);fill-opacity:1;">
  <use xlink:href="#glyph1-4" x="203.394531" y="35.136719"/>
</g>
<g style="fill:rgb(0%,0%,0%);fill-opacity:1;">
  <use xlink:href="#glyph2-0" x="215.40625" y="35.136719"/>
</g>
<g style="fill:rgb(0%,0%,0%);fill-opacity:1;">
  <use xlink:href="#glyph1-5" x="220.808594" y="35.136719"/>
</g>
<g style="fill:rgb(0%,0%,0%);fill-opacity:1;">
  <use xlink:href="#glyph1-6" x="232.820313" y="35.136719"/>
</g>
<g style="fill:rgb(0%,0%,0%);fill-opacity:1;">
  <use xlink:href="#glyph1-2" x="243.621094" y="35.136719"/>
</g>
<g style="fill:rgb(0%,0%,0%);fill-opacity:1;">
  <use xlink:href="#glyph1-7" x="248.417969" y="35.136719"/>
</g>
<g style="fill:rgb(0%,0%,0%);fill-opacity:1;">
  <use xlink:href="#glyph2-0" x="260.433594" y="35.136719"/>
</g>
<g style="fill:rgb(0%,0%,0%);fill-opacity:1;">
  <use xlink:href="#glyph1-8" x="265.832031" y="35.136719"/>
</g>
<g style="fill:rgb(0%,0%,0%);fill-opacity:1;">
  <use xlink:href="#glyph1-5" x="276.632813" y="35.136719"/>
</g>
<g style="fill:rgb(0%,0%,0%);fill-opacity:1;">
  <use xlink:href="#glyph1-9" x="288.644531" y="35.136719"/>
</g>
<g style="fill:rgb(0%,0%,0%);fill-opacity:1;">
  <use xlink:href="#glyph1-2" x="295.835938" y="35.136719"/>
</g>
<g style="fill:rgb(0%,0%,0%);fill-opacity:1;">
  <use xlink:href="#glyph1-5" x="300.636719" y="35.136719"/>
</g>
<g style="fill:rgb(0%,0%,0%);fill-opacity:1;">
  <use xlink:href="#glyph1-10" x="312.648438" y="35.136719"/>
</g>
<g style="fill:rgb(0%,0%,0%);fill-opacity:1;">
  <use xlink:href="#glyph1-2" x="318.652344" y="35.136719"/>
</g>
<g style="fill:rgb(0%,0%,0%);fill-opacity:1;">
  <use xlink:href="#glyph1-4" x="323.449219" y="35.136719"/>
</g>
<g style="fill:rgb(0%,0%,0%);fill-opacity:1;">
  <use xlink:href="#glyph1-3" x="335.460938" y="35.136719"/>
</g>
<g style="fill:rgb(0%,0%,0%);fill-opacity:1;">
  <use xlink:href="#glyph2-0" x="347.476563" y="35.136719"/>
</g>
<g style="fill:rgb(0%,0%,0%);fill-opacity:1;">
  <use xlink:href="#glyph1-4" x="352.875" y="35.136719"/>
</g>
<g style="fill:rgb(0%,0%,0%);fill-opacity:1;">
  <use xlink:href="#glyph1-3" x="364.886719" y="35.136719"/>
</g>
<g style="fill:rgb(0%,0%,0%);fill-opacity:1;">
  <use xlink:href="#glyph2-0" x="376.902344" y="35.136719"/>
</g>
<g style="fill:rgb(0%,0%,0%);fill-opacity:1;">
  <use xlink:href="#glyph1-10" x="382.300781" y="35.136719"/>
</g>
<g style="fill:rgb(0%,0%,0%);fill-opacity:1;">
  <use xlink:href="#glyph1-11" x="388.300781" y="35.136719"/>
</g>
<g style="fill:rgb(0%,0%,0%);fill-opacity:1;">
  <use xlink:href="#glyph1-12" x="400.316406" y="35.136719"/>
</g>
<g style="fill:rgb(0%,0%,0%);fill-opacity:1;">
  <use xlink:href="#glyph2-0" x="412.328125" y="35.136719"/>
</g>
<g style="fill:rgb(0%,0%,0%);fill-opacity:1;">
  <use xlink:href="#glyph1-13" x="417.726563" y="35.136719"/>
  <use xlink:href="#glyph1-14" x="429.739453" y="35.136719"/>
  <use xlink:href="#glyph1-15" x="441.752344" y="35.136719"/>
</g>
<g style="fill:rgb(0%,0%,0%);fill-opacity:1;">
  <use xlink:href="#glyph2-0" x="453.765625" y="35.136719"/>
</g>
<g style="fill:rgb(0%,0%,0%);fill-opacity:1;">
  <use xlink:href="#glyph1-16" x="459.167969" y="35.136719"/>
</g>
<g style="fill:rgb(0%,0%,0%);fill-opacity:1;">
  <use xlink:href="#glyph1-4" x="471.179688" y="35.136719"/>
</g>
<g style="fill:rgb(0%,0%,0%);fill-opacity:1;">
  <use xlink:href="#glyph1-17" x="483.191406" y="35.136719"/>
</g>
<g style="fill:rgb(0%,0%,0%);fill-opacity:1;">
  <use xlink:href="#glyph1-2" x="493.992188" y="35.136719"/>
</g>
<g style="fill:rgb(0%,0%,0%);fill-opacity:1;">
  <use xlink:href="#glyph1-10" x="498.792969" y="35.136719"/>
</g>
<g style="fill:rgb(0%,0%,0%);fill-opacity:1;">
  <use xlink:href="#glyph1-2" x="504.792969" y="35.136719"/>
</g>
<g style="fill:rgb(0%,0%,0%);fill-opacity:1;">
  <use xlink:href="#glyph1-4" x="509.589844" y="35.136719"/>
</g>
<g style="fill:rgb(0%,0%,0%);fill-opacity:1;">
  <use xlink:href="#glyph1-3" x="521.605469" y="35.136719"/>
</g>
<g style="fill:rgb(0%,0%,0%);fill-opacity:1;">
  <use xlink:href="#glyph3-0" x="12.960938" y="240.195313"/>
  <use xlink:href="#glyph3-1" x="12.960938" y="229.790234"/>
  <use xlink:href="#glyph3-2" x="12.960938" y="221.114258"/>
  <use xlink:href="#glyph3-3" x="12.960938" y="215.919336"/>
  <use xlink:href="#glyph3-1" x="12.960938" y="208.119336"/>
  <use xlink:href="#glyph3-4" x="12.960938" y="199.443359"/>
  <use xlink:href="#glyph3-5" x="12.960938" y="190.767383"/>
  <use xlink:href="#glyph3-6" x="12.960938" y="186.433203"/>
  <use xlink:href="#glyph3-7" x="12.960938" y="177.757227"/>
  <use xlink:href="#glyph3-1" x="12.960938" y="169.08125"/>
</g>
<path style="fill:none;stroke-width:0.75;stroke-linecap:round;stroke-linejoin:round;stroke:rgb(0%,0%,0%);stroke-opacity:1;stroke-miterlimit:10;" d="M 59.039063 341.558594 L 59.039063 59.039063 "/>
<path style="fill:none;stroke-width:0.75;stroke-linecap:round;stroke-linejoin:round;stroke:rgb(0%,0%,0%);stroke-opacity:1;stroke-miterlimit:10;" d="M 59.039063 341.558594 L 51.839844 341.558594 "/>
<path style="fill:none;stroke-width:0.75;stroke-linecap:round;stroke-linejoin:round;stroke:rgb(0%,0%,0%);stroke-opacity:1;stroke-miterlimit:10;" d="M 59.039063 285.054688 L 51.839844 285.054688 "/>
<path style="fill:none;stroke-width:0.75;stroke-linecap:round;stroke-linejoin:round;stroke:rgb(0%,0%,0%);stroke-opacity:1;stroke-miterlimit:10;" d="M 59.039063 228.550781 L 51.839844 228.550781 "/>
<path style="fill:none;stroke-width:0.75;stroke-linecap:round;stroke-linejoin:round;stroke:rgb(0%,0%,0%);stroke-opacity:1;stroke-miterlimit:10;" d="M 59.039063 172.046875 L 51.839844 172.046875 "/>
<path style="fill:none;stroke-width:0.75;stroke-linecap:round;stroke-linejoin:round;stroke:rgb(0%,0%,0%);stroke-opacity:1;stroke-miterlimit:10;" d="M 59.039063 115.542969 L 51.839844 115.542969 "/>
<path style="fill:none;stroke-width:0.75;stroke-linecap:round;stroke-linejoin:round;stroke:rgb(0%,0%,0%);stroke-opacity:1;stroke-miterlimit:10;" d="M 59.039063 59.039063 L 51.839844 59.039063 "/>
<g style="fill:rgb(0%,0%,0%);fill-opacity:1;">
  <use xlink:href="#glyph4-0" x="41.761719" y="346.5625"/>
</g>
<g style="fill:rgb(0%,0%,0%);fill-opacity:1;">
  <use xlink:href="#glyph4-1" x="41.761719" y="295.066406"/>
  <use xlink:href="#glyph4-0" x="41.761719" y="285.055664"/>
</g>
<g style="fill:rgb(0%,0%,0%);fill-opacity:1;">
  <use xlink:href="#glyph4-2" x="41.761719" y="238.5625"/>
  <use xlink:href="#glyph4-0" x="41.761719" y="228.551758"/>
</g>
<g style="fill:rgb(0%,0%,0%);fill-opacity:1;">
  <use xlink:href="#glyph4-3" x="41.761719" y="182.058594"/>
  <use xlink:href="#glyph4-0" x="41.761719" y="172.047852"/>
</g>
<g style="fill:rgb(0%,0%,0%);fill-opacity:1;">
  <use xlink:href="#glyph4-4" x="41.761719" y="125.554688"/>
  <use xlink:href="#glyph4-0" x="41.761719" y="115.543945"/>
</g>
<g style="fill:rgb(0%,0%,0%);fill-opacity:1;">
  <use xlink:href="#glyph4-5" x="41.761719" y="74.054688"/>
  <use xlink:href="#glyph4-0" x="41.761719" y="64.043945"/>
  <use xlink:href="#glyph4-0" x="41.761719" y="54.033203"/>
</g>
<g style="fill:rgb(0%,0%,0%);fill-opacity:1;">
  <use xlink:href="#glyph5-0" x="87.476563" y="218.636719"/>
  <use xlink:href="#glyph5-1" x="94.150391" y="218.636719"/>
  <use xlink:href="#glyph5-2" x="100.824219" y="218.636719"/>
</g>
<g style="fill:rgb(0%,0%,0%);fill-opacity:1;">
  <use xlink:href="#glyph5-3" x="123.96875" y="334.46875"/>
  <use xlink:href="#glyph5-2" x="130.642578" y="334.46875"/>
</g>
<g style="fill:rgb(0%,0%,0%);fill-opacity:1;">
  <use xlink:href="#glyph5-4" x="157.128906" y="344.355469"/>
  <use xlink:href="#glyph5-2" x="163.802734" y="344.355469"/>
</g>
<g style="fill:rgb(0%,0%,0%);fill-opacity:1;">
  <use xlink:href="#glyph5-4" x="190.285156" y="344.355469"/>
  <use xlink:href="#glyph5-2" x="196.958984" y="344.355469"/>
</g>
<g style="fill:rgb(0%,0%,0%);fill-opacity:1;">
  <use xlink:href="#glyph5-4" x="223.445313" y="344.355469"/>
  <use xlink:href="#glyph5-2" x="230.119141" y="344.355469"/>
</g>
<g style="fill:rgb(0%,0%,0%);fill-opacity:1;">
  <use xlink:href="#glyph5-1" x="256.601563" y="345.769531"/>
  <use xlink:href="#glyph5-2" x="263.275391" y="345.769531"/>
</g>
</g>
</svg>
